{
    "inputMessageMetadata": {
        "messagePayload": {
            "connectorName": "#_custom_mule_metadata_type_#",
            "typeId": "LearningComponentOutput"
        }
    },
    "outputMessageMetadata": {
        "messagePayload": {
            "connectorName": "#_custom_mule_metadata_type_#",
            "typeId": "LearningComponentId"
        },
        "flowVariables": {
            "training": {
                "connectorName": "#_custom_mule_metadata_type_#",
                "typeId": "LearningComponentId"
            }
        }
    },
    "id": "dd2141d9-1c40-42ec-9615-a29030fe304b",
    "version": "5.2.0.0"
}